…
    ##    <chr>                               <chr> <chr> <int> <chr> <chr> <chr> <dbl>
    ##  1 1-#FFFFFF                           s0    w0        1 #FFF… w0    80px    100
    ##  2 2-#CFB8D1-3-#84DF9D-4-#7CD1D3-5-#F… s1    w1        2 #CFB… w1    80px    100
    ##  3 2-#A54BE3-3-#9DE956-4-#7CD1D3-5-#F… s2    w2        2 #A54… w2    80px    100
    ##  4 2-#D2D9B9-3-#DA74C8-4-#7CD1D3-5-#F… s3    w3        2 #D2D… w3    80px    100
    ##  5 2-#D2D9B9-3-#84DF9D-4-#7CD1D3-5-#F… s4    w4        2 #D2D… w4    80px    100
    ##  6 3-#84DF9D-4-#7CD1D3-5-#FFFFFF-5-#F… s5    w5        3 #84D… w5    80px    100
    ##  7 3-#DCCD64-4-#8287D4-5-#FFFFFF-5-#F… s6, … w6        3 #DCC… w6    80px    100
    ##  8 3-#9DE956-4-#7CD1D3-5-#FFFFFF-5-#F… s7    w7        3 #9DE… w7    80px    100
    ##  9 3-#DA74C8-4-#7CD1D3-5-#FFFFFF-5-#F… s8, … w8        3 #DA7… w8    80px    100
    ## 10 3-#84DF9D-4-#7CD1D3-5-#FFFFFF-5-#F… s11,… w9        3 #84D… w9    80px    100
    ## 11 4-#7CD1D3-5-#FFFFFF-5-#FFFFFF       s13,… w10       4 #7CD… w10   80px    100
    ## 12 4-#8287D4-5-#FFFFFF-5-#FFFFFF       s15,… w11       4 #828… w11   80px    100
    ## 13 5-#FFFFFF                           s29,… w∞        5 #FFF… w∞    80px    100
    ## # A tibble: 26 × 21
    ##    from  to    label1    colour_from sumlabel2 sumlabel3 total label_individuals
    ##    <chr> <chr> <chr>     <chr>           <dbl>     <dbl> <dbl> <chr>            
    ##  1 w0    w1    Adolesce… #FFFFFF           816         1   817 "Adolescent/Youn…
    ##  2 w0    w2    Adult     #FFFFFF          1522         1  1523 "Adult \n 1523"  
    ##  3 w0    w3    Child     #FFFFFF           133         1   134 "Child \n 134"   
    ##  4 w0    w4    Elderly   #FFFFFF           199         1   200 "Elderly \n 200" 
    ##  5 w1    w5    Female    #CFB8D1           103         1   104 "Female \n 104"  
    ##  6 w1    w6    Male      #CFB8D1           713         1   714 "Male \n 714"    
    ##  7 w10   w∞    Solved    #7CD1D3           501         7   508 "Solved \n 508"  
    ##  8 w10   w∞    Unsolved  #7CD1D3            23         7    30 "Unsolved \n 30" 
    ##  9 w11   w∞    Solved    #8287D4          1861         9  1870 "Solved \n 1870" 
    ## 10 w11   w∞    Unsolved  #8287D4           285         9   294 "Unsolved \n 294"
    ## # ℹ 16 more rows
    ## # ℹ 13 more variables: font.size <dbl>, stage_total_posterior <dbl>,
    ## #   posterior_total <dbl>, stage_total_prior <dbl>, prior_total <dbl>,
    ## #   prior_mean <dbl>, posterior_mean <dbl>, label_posterior <chr>,
    ## #   label_prior_mean <chr>, label_prior <chr>, color <chr>, smooth <list>,
    ## #   level <int>
…
    ##    <chr>                  <chr> <chr> <int> <chr> <chr> <chr> <dbl> <list>      
    ##  1 1-#FFFFFF              s0    w0        1 #FFF… w0    80px    100 <named list>
    ##  2 2-#CFB8D1-3-#84DF9D-4… s1    w1        2 #CFB… w1    80px    100 <named list>
    ##  3 2-#A54BE3-3-#9DE956-4… s2    w2        2 #A54… w2    80px    100 <named list>
    ##  4 2-#D2D9B9-3-#DA74C8-4… s3    w3        2 #D2D… w3    80px    100 <named list>
    ##  5 2-#D2D9B9-3-#84DF9D-4… s4    w4        2 #D2D… w4    80px    100 <named list>
    ##  6 3-#84DF9D-4-#7CD1D3-5… s5    w5        3 #84D… w5    80px    100 <named list>
    ##  7 3-#DCCD64-4-#8287D4-5… s6, … w6        3 #DCC… w6    80px    100 <named list>
    ##  8 3-#9DE956-4-#7CD1D3-5… s7    w7        3 #9DE… w7    80px    100 <named list>
    ##  9 3-#DA74C8-4-#7CD1D3-5… s8, … w8        3 #DA7… w8    80px    100 <named list>
    ## 10 3-#84DF9D-4-#7CD1D3-5… s11,… w9        3 #84D… w9    80px    100 <named list>
    ## 11 4-#7CD1D3-5-#FFFFFF-5… s13,… w10       4 #7CD… w10   80px    100 <named list>
    ## 12 4-#8287D4-5-#FFFFFF-5… s15,… w11       4 #828… w11   80px    100 <named list>
    ## 13 5-#FFFFFF              s29,… w∞        5 #FFF… w∞    80px    100 <named list>
    ## # A tibble: 26 × 22
    ##    from  to    label1    colour_from sumlabel2 sumlabel3 total label_individuals
    ##    <chr> <chr> <chr>     <chr>           <dbl>     <dbl> <dbl> <chr>            
    ##  1 w0    w1    Adolesce… #FFFFFF           816         1   817 "Adolescent/Youn…
    ##  2 w0    w2    Adult     #FFFFFF          1522         1  1523 "Adult \n 1523"  
    ##  3 w0    w3    Child     #FFFFFF           133         1   134 "Child \n 134"   
    ##  4 w0    w4    Elderly   #FFFFFF           199         1   200 "Elderly \n 200" 
    ##  5 w1    w5    Female    #CFB8D1           103         1   104 "Female \n 104"  
    ##  6 w1    w6    Male      #CFB8D1           713         1   714 "Male \n 714"    
    ##  7 w10   w∞    Solved    #7CD1D3           501         7   508 "Solved \n 508"  
    ##  8 w10   w∞    Unsolved  #7CD1D3            23         7    30 "Unsolved \n 30" 
    ##  9 w11   w∞    Solved    #8287D4          1861         9  1870 "Solved \n 1870" 
    ## 10 w11   w∞    Unsolved  #8287D4           285         9   294 "Unsolved \n 294"
    ## # ℹ 16 more rows
    ## # ℹ 14 more variables: font.size <dbl>, stage_total_posterior <dbl>,
    ## #   posterior_total <dbl>, stage_total_prior <dbl>, prior_total <dbl>,
    ## #   prior_mean <dbl>, posterior_mean <dbl>, label_posterior <chr>,
    ## #   label_prior_mean <chr>, label_prior <chr>, color <chr>, smooth <list>,
    ## #   level <int>, label <chr>
…
